%YAML 1.1
%TAG !u! tag:unity3d.com,2011:
--- !u!74 &7400000
AnimationClip:
  m_ObjectHideFlags: 0
  m_CorrespondingSourceObject: {fileID: 0}
  m_PrefabInstance: {fileID: 0}
  m_PrefabAsset: {fileID: 0}
  m_Name: Bat_Projectile
  serializedVersion: 6
  m_Legacy: 0
  m_Compressed: 0
  m_UseHighQualityCurve: 1
  m_RotationCurves: []
  m_CompressedRotationCurves: []
  m_EulerCurves: []
  m_PositionCurves: []
  m_ScaleCurves: []
  m_FloatCurves: []
  m_PPtrCurves:
  - curve:
    - time: 0
      value: {fileID: 4610871354130461315, guid: e3e5091648b5df84484f6699ccfb1119,
        type: 3}
    - time: 0.083333336
      value: {fileID: 4170137227777892237, guid: e3e5091648b5df84484f6699ccfb1119,
        type: 3}
    - time: 0.16666667
      value: {fileID: 382689307907334156, guid: e3e5091648b5df84484f6699ccfb1119,
        type: 3}
    - time: 0.25
      value: {fileID: -3422479585928310642, guid: e3e5091648b5df84484f6699ccfb1119,
        type: 3}
    - time: 0.33333334
      value: {fileID: 7769307691102620206, guid: e3e5091648b5df84484f6699ccfb1119,
        type: 3}
    - time: 0.41666666
      value: {fileID: -6178770311121749719, guid: e3e5091648b5df84484f6699ccfb1119,
        type: 3}
    - time: 0.5
      value: {fileID: 304659462600216684, guid: e3e5091648b5df84484f6699ccfb1119,
        type: 3}
    - time: 0.5833333
      value: {fileID: 1125975015585081777, guid: e3e5091648b5df84484f6699ccfb1119,
        type: 3}
    - time: 0.6666667
      value: {fileID: -6941032395609622833, guid: e3e5091648b5df84484f6699ccfb1119,
        type: 3}
    - time: 0.75
      value: {fileID: -8389241001362009556, guid: e3e5091648b5df84484f6699ccfb1119,
        type: 3}
    - time: 0.8333333
      value: {fileID: -932009381164512295, guid: e3e5091648b5df84484f6699ccfb1119,
        type: 3}
    - time: 0.9166667
      value: {fileID: -4774659379762061824, guid: e3e5091648b5df84484f6699ccfb1119,
        type: 3}
    - time: 1
      value: {fileID: 1218049947869341611, guid: e3e5091648b5df84484f6699ccfb1119,
        type: 3}
    - time: 1.0833334
      value: {fileID: 8194892703476966585, guid: e3e5091648b5df84484f6699ccfb1119,
        type: 3}
    - time: 1.1666666
      value: {fileID: -4585725218972752361, guid: e3e5091648b5df84484f6699ccfb1119,
        type: 3}
    - time: 1.25
      value: {fileID: -5016913174032082753, guid: e3e5091648b5df84484f6699ccfb1119,
        type: 3}
    - time: 1.3333334
      value: {fileID: -5577184359974237789, guid: e3e5091648b5df84484f6699ccfb1119,
        type: 3}
    - time: 1.4166666
      value: {fileID: 1419983597278571543, guid: e3e5091648b5df84484f6699ccfb1119,
        type: 3}
    - time: 1.5
      value: {fileID: -2179864333112335776, guid: e3e5091648b5df84484f6699ccfb1119,
        type: 3}
    - time: 1.5833334
      value: {fileID: -1522463453259615861, guid: e3e5091648b5df84484f6699ccfb1119,
        type: 3}
    - time: 1.6666666
      value: {fileID: -8705645468810170933, guid: e3e5091648b5df84484f6699ccfb1119,
        type: 3}
    - time: 1.75
      value: {fileID: -6890799395083175479, guid: e3e5091648b5df84484f6699ccfb1119,
        type: 3}
    - time: 1.8333334
      value: {fileID: -5568677440206030074, guid: e3e5091648b5df84484f6699ccfb1119,
        type: 3}
    - time: 1.9166666
      value: {fileID: -6513954903096243094, guid: e3e5091648b5df84484f6699ccfb1119,
        type: 3}
    - time: 2
      value: {fileID: 2930169618027513381, guid: e3e5091648b5df84484f6699ccfb1119,
        type: 3}
    - time: 2.0833333
      value: {fileID: -4379750505341271649, guid: e3e5091648b5df84484f6699ccfb1119,
        type: 3}
    - time: 2.1666667
      value: {fileID: -5034052986019530906, guid: e3e5091648b5df84484f6699ccfb1119,
        type: 3}
    - time: 2.25
      value: {fileID: -6350592730470343389, guid: e3e5091648b5df84484f6699ccfb1119,
        type: 3}
    - time: 2.3333333
      value: {fileID: -7279187785934747642, guid: e3e5091648b5df84484f6699ccfb1119,
        type: 3}
    - time: 2.4166667
      value: {fileID: 2773826675812382592, guid: e3e5091648b5df84484f6699ccfb1119,
        type: 3}
    - time: 2.5
      value: {fileID: -4553303351055525932, guid: e3e5091648b5df84484f6699ccfb1119,
        type: 3}
    - time: 2.5833333
      value: {fileID: -791086582058817160, guid: e3e5091648b5df84484f6699ccfb1119,
        type: 3}
    - time: 2.6666667
      value: {fileID: -1400860940813869102, guid: e3e5091648b5df84484f6699ccfb1119,
        type: 3}
    - time: 2.75
      value: {fileID: 3608395504250931489, guid: e3e5091648b5df84484f6699ccfb1119,
        type: 3}
    - time: 2.8333333
      value: {fileID: -1357459283232492678, guid: e3e5091648b5df84484f6699ccfb1119,
        type: 3}
    - time: 2.9166667
      value: {fileID: -3715968513941061332, guid: e3e5091648b5df84484f6699ccfb1119,
        type: 3}
    - time: 3
      value: {fileID: 6981363830942088257, guid: e3e5091648b5df84484f6699ccfb1119,
        type: 3}
    - time: 3.0833333
      value: {fileID: 7212664854296578710, guid: e3e5091648b5df84484f6699ccfb1119,
        type: 3}
    - time: 3.1666667
      value: {fileID: 5554442938647989436, guid: e3e5091648b5df84484f6699ccfb1119,
        type: 3}
    - time: 3.25
      value: {fileID: -1342070723839828153, guid: e3e5091648b5df84484f6699ccfb1119,
        type: 3}
    - time: 3.3333333
      value: {fileID: 1219491355249657529, guid: e3e5091648b5df84484f6699ccfb1119,
        type: 3}
    - time: 3.4166667
      value: {fileID: 208881751977250502, guid: e3e5091648b5df84484f6699ccfb1119,
        type: 3}
    - time: 3.5
      value: {fileID: -1598402228375169103, guid: e3e5091648b5df84484f6699ccfb1119,
        type: 3}
    - time: 3.5833333
      value: {fileID: 6897684395640683795, guid: e3e5091648b5df84484f6699ccfb1119,
        type: 3}
    - time: 3.6666667
      value: {fileID: -6566547312769844641, guid: e3e5091648b5df84484f6699ccfb1119,
        type: 3}
    - time: 3.75
      value: {fileID: 8111583163254271854, guid: e3e5091648b5df84484f6699ccfb1119,
        type: 3}
    - time: 3.8333333
      value: {fileID: 3265988518196174826, guid: e3e5091648b5df84484f6699ccfb1119,
        type: 3}
    - time: 3.9166667
      value: {fileID: 8682332154438956699, guid: e3e5091648b5df84484f6699ccfb1119,
        type: 3}
    - time: 4
      value: {fileID: 2373795724782308523, guid: e3e5091648b5df84484f6699ccfb1119,
        type: 3}
    - time: 4.0833335
      value: {fileID: 3365511730710968768, guid: e3e5091648b5df84484f6699ccfb1119,
        type: 3}
    - time: 4.1666665
      value: {fileID: 50531899140098302, guid: e3e5091648b5df84484f6699ccfb1119, type: 3}
    - time: 4.25
      value: {fileID: 590112120732297556, guid: e3e5091648b5df84484f6699ccfb1119,
        type: 3}
    - time: 4.3333335
      value: {fileID: -109012349278139237, guid: e3e5091648b5df84484f6699ccfb1119,
        type: 3}
    - time: 4.4166665
      value: {fileID: 3250939197089802684, guid: e3e5091648b5df84484f6699ccfb1119,
        type: 3}
    - time: 4.5
      value: {fileID: -8870033307084044669, guid: e3e5091648b5df84484f6699ccfb1119,
        type: 3}
    - time: 4.5833335
      value: {fileID: 3267105130257078301, guid: e3e5091648b5df84484f6699ccfb1119,
        type: 3}
    - time: 4.6666665
      value: {fileID: 7396551053667154988, guid: e3e5091648b5df84484f6699ccfb1119,
        type: 3}
    - time: 4.75
      value: {fileID: -7850797282289824441, guid: e3e5091648b5df84484f6699ccfb1119,
        type: 3}
    - time: 4.8333335
      value: {fileID: 225180440117707615, guid: e3e5091648b5df84484f6699ccfb1119,
        type: 3}
    - time: 4.9166665
      value: {fileID: 28318000105178192, guid: e3e5091648b5df84484f6699ccfb1119, type: 3}
    attribute: m_Sprite
    path: 
    classID: 212
    script: {fileID: 0}
  m_SampleRate: 12
  m_WrapMode: 0
  m_Bounds:
    m_Center: {x: 0, y: 0, z: 0}
    m_Extent: {x: 0, y: 0, z: 0}
  m_ClipBindingConstant:
    genericBindings:
    - serializedVersion: 2
      path: 0
      attribute: 0
      script: {fileID: 0}
      typeID: 212
      customType: 23
      isPPtrCurve: 1
    pptrCurveMapping:
    - {fileID: 4610871354130461315, guid: e3e5091648b5df84484f6699ccfb1119, type: 3}
    - {fileID: 4170137227777892237, guid: e3e5091648b5df84484f6699ccfb1119, type: 3}
    - {fileID: 382689307907334156, guid: e3e5091648b5df84484f6699ccfb1119, type: 3}
    - {fileID: -3422479585928310642, guid: e3e5091648b5df84484f6699ccfb1119, type: 3}
    - {fileID: 7769307691102620206, guid: e3e5091648b5df84484f6699ccfb1119, type: 3}
    - {fileID: -6178770311121749719, guid: e3e5091648b5df84484f6699ccfb1119, type: 3}
    - {fileID: 304659462600216684, guid: e3e5091648b5df84484f6699ccfb1119, type: 3}
    - {fileID: 1125975015585081777, guid: e3e5091648b5df84484f6699ccfb1119, type: 3}
    - {fileID: -6941032395609622833, guid: e3e5091648b5df84484f6699ccfb1119, type: 3}
    - {fileID: -8389241001362009556, guid: e3e5091648b5df84484f6699ccfb1119, type: 3}
    - {fileID: -932009381164512295, guid: e3e5091648b5df84484f6699ccfb1119, type: 3}
    - {fileID: -4774659379762061824, guid: e3e5091648b5df84484f6699ccfb1119, type: 3}
    - {fileID: 1218049947869341611, guid: e3e5091648b5df84484f6699ccfb1119, type: 3}
    - {fileID: 8194892703476966585, guid: e3e5091648b5df84484f6699ccfb1119, type: 3}
    - {fileID: -4585725218972752361, guid: e3e5091648b5df84484f6699ccfb1119, type: 3}
    - {fileID: -5016913174032082753, guid: e3e5091648b5df84484f6699ccfb1119, type: 3}
    - {fileID: -5577184359974237789, guid: e3e5091648b5df84484f6699ccfb1119, type: 3}
    - {fileID: 1419983597278571543, guid: e3e5091648b5df84484f6699ccfb1119, type: 3}
    - {fileID: -2179864333112335776, guid: e3e5091648b5df84484f6699ccfb1119, type: 3}
    - {fileID: -1522463453259615861, guid: e3e5091648b5df84484f6699ccfb1119, type: 3}
    - {fileID: -8705645468810170933, guid: e3e5091648b5df84484f6699ccfb1119, type: 3}
    - {fileID: -6890799395083175479, guid: e3e5091648b5df84484f6699ccfb1119, type: 3}
    - {fileID: -5568677440206030074, guid: e3e5091648b5df84484f6699ccfb1119, type: 3}
    - {fileID: -6513954903096243094, guid: e3e5091648b5df84484f6699ccfb1119, type: 3}
    - {fileID: 2930169618027513381, guid: e3e5091648b5df84484f6699ccfb1119, type: 3}
    - {fileID: -4379750505341271649, guid: e3e5091648b5df84484f6699ccfb1119, type: 3}
    - {fileID: -5034052986019530906, guid: e3e5091648b5df84484f6699ccfb1119, type: 3}
    - {fileID: -6350592730470343389, guid: e3e5091648b5df84484f6699ccfb1119, type: 3}
    - {fileID: -7279187785934747642, guid: e3e5091648b5df84484f6699ccfb1119, type: 3}
    - {fileID: 2773826675812382592, guid: e3e5091648b5df84484f6699ccfb1119, type: 3}
    - {fileID: -4553303351055525932, guid: e3e5091648b5df84484f6699ccfb1119, type: 3}
    - {fileID: -791086582058817160, guid: e3e5091648b5df84484f6699ccfb1119, type: 3}
    - {fileID: -1400860940813869102, guid: e3e5091648b5df84484f6699ccfb1119, type: 3}
    - {fileID: 3608395504250931489, guid: e3e5091648b5df84484f6699ccfb1119, type: 3}
    - {fileID: -1357459283232492678, guid: e3e5091648b5df84484f6699ccfb1119, type: 3}
    - {fileID: -3715968513941061332, guid: e3e5091648b5df84484f6699ccfb1119, type: 3}
    - {fileID: 6981363830942088257, guid: e3e5091648b5df84484f6699ccfb1119, type: 3}
    - {fileID: 7212664854296578710, guid: e3e5091648b5df84484f6699ccfb1119, type: 3}
    - {fileID: 5554442938647989436, guid: e3e5091648b5df84484f6699ccfb1119, type: 3}
    - {fileID: -1342070723839828153, guid: e3e5091648b5df84484f6699ccfb1119, type: 3}
    - {fileID: 1219491355249657529, guid: e3e5091648b5df84484f6699ccfb1119, type: 3}
    - {fileID: 208881751977250502, guid: e3e5091648b5df84484f6699ccfb1119, type: 3}
    - {fileID: -1598402228375169103, guid: e3e5091648b5df84484f6699ccfb1119, type: 3}
    - {fileID: 6897684395640683795, guid: e3e5091648b5df84484f6699ccfb1119, type: 3}
    - {fileID: -6566547312769844641, guid: e3e5091648b5df84484f6699ccfb1119, type: 3}
    - {fileID: 8111583163254271854, guid: e3e5091648b5df84484f6699ccfb1119, type: 3}
    - {fileID: 3265988518196174826, guid: e3e5091648b5df84484f6699ccfb1119, type: 3}
    - {fileID: 8682332154438956699, guid: e3e5091648b5df84484f6699ccfb1119, type: 3}
    - {fileID: 2373795724782308523, guid: e3e5091648b5df84484f6699ccfb1119, type: 3}
    - {fileID: 3365511730710968768, guid: e3e5091648b5df84484f6699ccfb1119, type: 3}
    - {fileID: 50531899140098302, guid: e3e5091648b5df84484f6699ccfb1119, type: 3}
    - {fileID: 590112120732297556, guid: e3e5091648b5df84484f6699ccfb1119, type: 3}
    - {fileID: -109012349278139237, guid: e3e5091648b5df84484f6699ccfb1119, type: 3}
    - {fileID: 3250939197089802684, guid: e3e5091648b5df84484f6699ccfb1119, type: 3}
    - {fileID: -8870033307084044669, guid: e3e5091648b5df84484f6699ccfb1119, type: 3}
    - {fileID: 3267105130257078301, guid: e3e5091648b5df84484f6699ccfb1119, type: 3}
    - {fileID: 7396551053667154988, guid: e3e5091648b5df84484f6699ccfb1119, type: 3}
    - {fileID: -7850797282289824441, guid: e3e5091648b5df84484f6699ccfb1119, type: 3}
    - {fileID: 225180440117707615, guid: e3e5091648b5df84484f6699ccfb1119, type: 3}
    - {fileID: 28318000105178192, guid: e3e5091648b5df84484f6699ccfb1119, type: 3}
  m_AnimationClipSettings:
    serializedVersion: 2
    m_AdditiveReferencePoseClip: {fileID: 0}
    m_AdditiveReferencePoseTime: 0
    m_StartTime: 0
    m_StopTime: 5
    m_OrientationOffsetY: 0
    m_Level: 0
    m_CycleOffset: 0
    m_HasAdditiveReferencePose: 0
    m_LoopTime: 1
    m_LoopBlend: 0
    m_LoopBlendOrientation: 0
    m_LoopBlendPositionY: 0
    m_LoopBlendPositionXZ: 0
    m_KeepOriginalOrientation: 0
    m_KeepOriginalPositionY: 1
    m_KeepOriginalPositionXZ: 0
    m_HeightFromFeet: 0
    m_Mirror: 0
  m_EditorCurves: []
  m_EulerEditorCurves: []
  m_HasGenericRootTransform: 0
  m_HasMotionFloatCurves: 0
  m_Events: []
