%YAML 1.1
%TAG !u! tag:unity3d.com,2011:
--- !u!74 &7400000
AnimationClip:
  m_ObjectHideFlags: 0
  m_CorrespondingSourceObject: {fileID: 0}
  m_PrefabInstance: {fileID: 0}
  m_PrefabAsset: {fileID: 0}
  m_Name: Spider_Death
  serializedVersion: 6
  m_Legacy: 0
  m_Compressed: 0
  m_UseHighQualityCurve: 1
  m_RotationCurves: []
  m_CompressedRotationCurves: []
  m_EulerCurves: []
  m_PositionCurves: []
  m_ScaleCurves: []
  m_FloatCurves: []
  m_PPtrCurves:
  - curve:
    - time: 0
      value: {fileID: 5515940388465253583, guid: 125b2587682d5874095ea06d803e5320,
        type: 3}
    - time: 0.083333336
      value: {fileID: -6520443128951653849, guid: 125b2587682d5874095ea06d803e5320,
        type: 3}
    - time: 0.16666667
      value: {fileID: -1438455721846447060, guid: 125b2587682d5874095ea06d803e5320,
        type: 3}
    - time: 0.25
      value: {fileID: -695508911225482883, guid: 125b2587682d5874095ea06d803e5320,
        type: 3}
    - time: 0.33333334
      value: {fileID: -4056761900464952230, guid: 125b2587682d5874095ea06d803e5320,
        type: 3}
    - time: 0.41666666
      value: {fileID: 7385018138126898444, guid: 125b2587682d5874095ea06d803e5320,
        type: 3}
    - time: 0.5
      value: {fileID: 6864951633810407737, guid: 125b2587682d5874095ea06d803e5320,
        type: 3}
    - time: 0.5833333
      value: {fileID: -7690719552909781631, guid: 125b2587682d5874095ea06d803e5320,
        type: 3}
    - time: 0.6666667
      value: {fileID: 1283128748658628804, guid: 125b2587682d5874095ea06d803e5320,
        type: 3}
    - time: 0.75
      value: {fileID: -8255346605438262791, guid: 125b2587682d5874095ea06d803e5320,
        type: 3}
    - time: 0.8333333
      value: {fileID: -4931404147288087084, guid: 125b2587682d5874095ea06d803e5320,
        type: 3}
    - time: 0.9166667
      value: {fileID: 6881875229547684426, guid: 125b2587682d5874095ea06d803e5320,
        type: 3}
    - time: 1
      value: {fileID: 4303769466727667012, guid: 125b2587682d5874095ea06d803e5320,
        type: 3}
    - time: 1.0833334
      value: {fileID: 4586777681906219758, guid: 125b2587682d5874095ea06d803e5320,
        type: 3}
    - time: 1.1666666
      value: {fileID: 5265022023639740371, guid: 125b2587682d5874095ea06d803e5320,
        type: 3}
    - time: 1.25
      value: {fileID: -620582921062787571, guid: 125b2587682d5874095ea06d803e5320,
        type: 3}
    - time: 1.3333334
      value: {fileID: 4488791372681652255, guid: 125b2587682d5874095ea06d803e5320,
        type: 3}
    - time: 1.4166666
      value: {fileID: 4039163050319630384, guid: 125b2587682d5874095ea06d803e5320,
        type: 3}
    - time: 1.5
      value: {fileID: -8652791768032594203, guid: 125b2587682d5874095ea06d803e5320,
        type: 3}
    - time: 1.5833334
      value: {fileID: -5240080820927950682, guid: 125b2587682d5874095ea06d803e5320,
        type: 3}
    - time: 1.6666666
      value: {fileID: -2179491946542612731, guid: 125b2587682d5874095ea06d803e5320,
        type: 3}
    - time: 1.75
      value: {fileID: -236438270778105026, guid: 125b2587682d5874095ea06d803e5320,
        type: 3}
    - time: 1.8333334
      value: {fileID: 6152064827210850160, guid: 125b2587682d5874095ea06d803e5320,
        type: 3}
    - time: 1.9166666
      value: {fileID: 4237073251075388097, guid: 125b2587682d5874095ea06d803e5320,
        type: 3}
    - time: 2
      value: {fileID: 2636805266812054137, guid: 125b2587682d5874095ea06d803e5320,
        type: 3}
    - time: 2.0833333
      value: {fileID: -268066435241211554, guid: 125b2587682d5874095ea06d803e5320,
        type: 3}
    - time: 2.1666667
      value: {fileID: 2685037774779261071, guid: 125b2587682d5874095ea06d803e5320,
        type: 3}
    - time: 2.25
      value: {fileID: 4032620940056966189, guid: 125b2587682d5874095ea06d803e5320,
        type: 3}
    - time: 2.3333333
      value: {fileID: -6484147580194844080, guid: 125b2587682d5874095ea06d803e5320,
        type: 3}
    - time: 2.4166667
      value: {fileID: 6541147359082852304, guid: 125b2587682d5874095ea06d803e5320,
        type: 3}
    - time: 2.5
      value: {fileID: -6373307215172268941, guid: 125b2587682d5874095ea06d803e5320,
        type: 3}
    - time: 2.5833333
      value: {fileID: -1701788793634830156, guid: 125b2587682d5874095ea06d803e5320,
        type: 3}
    - time: 2.6666667
      value: {fileID: 8319027057893409049, guid: 125b2587682d5874095ea06d803e5320,
        type: 3}
    - time: 2.75
      value: {fileID: -1170458830452421567, guid: 125b2587682d5874095ea06d803e5320,
        type: 3}
    - time: 2.8333333
      value: {fileID: 3895955271376886457, guid: 125b2587682d5874095ea06d803e5320,
        type: 3}
    - time: 2.9166667
      value: {fileID: -9196720871325908961, guid: 125b2587682d5874095ea06d803e5320,
        type: 3}
    - time: 3
      value: {fileID: -1425215753762861846, guid: 125b2587682d5874095ea06d803e5320,
        type: 3}
    - time: 3.0833333
      value: {fileID: 5459077065017553117, guid: 125b2587682d5874095ea06d803e5320,
        type: 3}
    - time: 3.1666667
      value: {fileID: 7549806640703422999, guid: 125b2587682d5874095ea06d803e5320,
        type: 3}
    - time: 3.25
      value: {fileID: -8445061378611585177, guid: 125b2587682d5874095ea06d803e5320,
        type: 3}
    - time: 3.3333333
      value: {fileID: 8958208266106117847, guid: 125b2587682d5874095ea06d803e5320,
        type: 3}
    - time: 3.4166667
      value: {fileID: -5112768044507859757, guid: 125b2587682d5874095ea06d803e5320,
        type: 3}
    - time: 3.5
      value: {fileID: 3605711734747071471, guid: 125b2587682d5874095ea06d803e5320,
        type: 3}
    - time: 3.5833333
      value: {fileID: 8698154531481226208, guid: 125b2587682d5874095ea06d803e5320,
        type: 3}
    - time: 3.6666667
      value: {fileID: 2144673950274840710, guid: 125b2587682d5874095ea06d803e5320,
        type: 3}
    - time: 3.75
      value: {fileID: -13760472581257477, guid: 125b2587682d5874095ea06d803e5320,
        type: 3}
    - time: 3.8333333
      value: {fileID: -8442063963845884555, guid: 125b2587682d5874095ea06d803e5320,
        type: 3}
    - time: 3.9166667
      value: {fileID: -7867595899002592966, guid: 125b2587682d5874095ea06d803e5320,
        type: 3}
    - time: 4
      value: {fileID: 1072107806484296483, guid: 125b2587682d5874095ea06d803e5320,
        type: 3}
    - time: 4.0833335
      value: {fileID: 1915372697886362788, guid: 125b2587682d5874095ea06d803e5320,
        type: 3}
    - time: 4.1666665
      value: {fileID: -9020580986569542892, guid: 125b2587682d5874095ea06d803e5320,
        type: 3}
    - time: 4.25
      value: {fileID: 9116953998044443806, guid: 125b2587682d5874095ea06d803e5320,
        type: 3}
    - time: 4.3333335
      value: {fileID: 4359257147807077388, guid: 125b2587682d5874095ea06d803e5320,
        type: 3}
    - time: 4.4166665
      value: {fileID: 184729304942728638, guid: 125b2587682d5874095ea06d803e5320,
        type: 3}
    - time: 4.5
      value: {fileID: 4373826324433016302, guid: 125b2587682d5874095ea06d803e5320,
        type: 3}
    - time: 4.5833335
      value: {fileID: -8819672703574865908, guid: 125b2587682d5874095ea06d803e5320,
        type: 3}
    - time: 4.6666665
      value: {fileID: -8168565774961892437, guid: 125b2587682d5874095ea06d803e5320,
        type: 3}
    - time: 4.75
      value: {fileID: 2186053679860620951, guid: 125b2587682d5874095ea06d803e5320,
        type: 3}
    - time: 4.8333335
      value: {fileID: -3405042808211897707, guid: 125b2587682d5874095ea06d803e5320,
        type: 3}
    - time: 4.9166665
      value: {fileID: -4811366926946975532, guid: 125b2587682d5874095ea06d803e5320,
        type: 3}
    - time: 5
      value: {fileID: 7686211576320387647, guid: 125b2587682d5874095ea06d803e5320,
        type: 3}
    - time: 5.0833335
      value: {fileID: -1276328038353840244, guid: 125b2587682d5874095ea06d803e5320,
        type: 3}
    - time: 5.1666665
      value: {fileID: -5285813379135230000, guid: 125b2587682d5874095ea06d803e5320,
        type: 3}
    - time: 5.25
      value: {fileID: 1147874205050663083, guid: 125b2587682d5874095ea06d803e5320,
        type: 3}
    - time: 5.3333335
      value: {fileID: 5371239484402011345, guid: 125b2587682d5874095ea06d803e5320,
        type: 3}
    - time: 5.4166665
      value: {fileID: 7515946791067925755, guid: 125b2587682d5874095ea06d803e5320,
        type: 3}
    - time: 5.5
      value: {fileID: -7546104426737331467, guid: 125b2587682d5874095ea06d803e5320,
        type: 3}
    - time: 5.5833335
      value: {fileID: -917831109794184216, guid: 125b2587682d5874095ea06d803e5320,
        type: 3}
    - time: 5.6666665
      value: {fileID: -7391295382628762684, guid: 125b2587682d5874095ea06d803e5320,
        type: 3}
    - time: 5.75
      value: {fileID: -1328369368734189238, guid: 125b2587682d5874095ea06d803e5320,
        type: 3}
    - time: 5.8333335
      value: {fileID: -7141747190029318085, guid: 125b2587682d5874095ea06d803e5320,
        type: 3}
    - time: 5.9166665
      value: {fileID: 923402355030909943, guid: 125b2587682d5874095ea06d803e5320,
        type: 3}
    - time: 6
      value: {fileID: 3197307398397158390, guid: 125b2587682d5874095ea06d803e5320,
        type: 3}
    - time: 6.0833335
      value: {fileID: -4631676813484617699, guid: 125b2587682d5874095ea06d803e5320,
        type: 3}
    - time: 6.1666665
      value: {fileID: -6164636217699038393, guid: 125b2587682d5874095ea06d803e5320,
        type: 3}
    - time: 6.25
      value: {fileID: -8996886770721593267, guid: 125b2587682d5874095ea06d803e5320,
        type: 3}
    - time: 6.3333335
      value: {fileID: -1697027096338838853, guid: 125b2587682d5874095ea06d803e5320,
        type: 3}
    - time: 6.4166665
      value: {fileID: -8016805240880823990, guid: 125b2587682d5874095ea06d803e5320,
        type: 3}
    - time: 6.5
      value: {fileID: 2367115026987686316, guid: 125b2587682d5874095ea06d803e5320,
        type: 3}
    - time: 6.5833335
      value: {fileID: -2275896042707864358, guid: 125b2587682d5874095ea06d803e5320,
        type: 3}
    - time: 6.6666665
      value: {fileID: 4182776718150276800, guid: 125b2587682d5874095ea06d803e5320,
        type: 3}
    - time: 6.75
      value: {fileID: 100273499307743153, guid: 125b2587682d5874095ea06d803e5320,
        type: 3}
    - time: 6.8333335
      value: {fileID: 7154372377962638682, guid: 125b2587682d5874095ea06d803e5320,
        type: 3}
    - time: 6.9166665
      value: {fileID: -6865359735629421163, guid: 125b2587682d5874095ea06d803e5320,
        type: 3}
    - time: 7
      value: {fileID: -7498118466458391029, guid: 125b2587682d5874095ea06d803e5320,
        type: 3}
    - time: 7.0833335
      value: {fileID: -8305423387442743403, guid: 125b2587682d5874095ea06d803e5320,
        type: 3}
    - time: 7.1666665
      value: {fileID: 5474105692082978498, guid: 125b2587682d5874095ea06d803e5320,
        type: 3}
    - time: 7.25
      value: {fileID: -4232455218496884369, guid: 125b2587682d5874095ea06d803e5320,
        type: 3}
    - time: 7.3333335
      value: {fileID: 6899788824684007653, guid: 125b2587682d5874095ea06d803e5320,
        type: 3}
    - time: 7.4166665
      value: {fileID: -4565782838741058267, guid: 125b2587682d5874095ea06d803e5320,
        type: 3}
    - time: 7.5
      value: {fileID: -890355261824072406, guid: 125b2587682d5874095ea06d803e5320,
        type: 3}
    - time: 7.5833335
      value: {fileID: 8332889939780552218, guid: 125b2587682d5874095ea06d803e5320,
        type: 3}
    - time: 7.6666665
      value: {fileID: 3685310508670205282, guid: 125b2587682d5874095ea06d803e5320,
        type: 3}
    - time: 7.75
      value: {fileID: 1401586379074443175, guid: 125b2587682d5874095ea06d803e5320,
        type: 3}
    - time: 7.8333335
      value: {fileID: 5384519306764486539, guid: 125b2587682d5874095ea06d803e5320,
        type: 3}
    - time: 7.9166665
      value: {fileID: -5608818138908396809, guid: 125b2587682d5874095ea06d803e5320,
        type: 3}
    - time: 8
      value: {fileID: 6242190802149298068, guid: 125b2587682d5874095ea06d803e5320,
        type: 3}
    - time: 8.083333
      value: {fileID: -6251758908008491347, guid: 125b2587682d5874095ea06d803e5320,
        type: 3}
    - time: 8.166667
      value: {fileID: -9171166094428272626, guid: 125b2587682d5874095ea06d803e5320,
        type: 3}
    - time: 8.25
      value: {fileID: -5637483608443177833, guid: 125b2587682d5874095ea06d803e5320,
        type: 3}
    - time: 8.333333
      value: {fileID: -2509892518542894531, guid: 125b2587682d5874095ea06d803e5320,
        type: 3}
    - time: 8.416667
      value: {fileID: -422418833479648354, guid: 125b2587682d5874095ea06d803e5320,
        type: 3}
    - time: 8.5
      value: {fileID: 2082075922959190502, guid: 125b2587682d5874095ea06d803e5320,
        type: 3}
    - time: 8.583333
      value: {fileID: -5499561566708206023, guid: 125b2587682d5874095ea06d803e5320,
        type: 3}
    - time: 8.666667
      value: {fileID: 5216964734438515594, guid: 125b2587682d5874095ea06d803e5320,
        type: 3}
    - time: 8.75
      value: {fileID: 9217766581982417774, guid: 125b2587682d5874095ea06d803e5320,
        type: 3}
    - time: 8.833333
      value: {fileID: 222830311158755476, guid: 125b2587682d5874095ea06d803e5320,
        type: 3}
    - time: 8.916667
      value: {fileID: -8341133803587428179, guid: 125b2587682d5874095ea06d803e5320,
        type: 3}
    - time: 9
      value: {fileID: 8286199660478436596, guid: 125b2587682d5874095ea06d803e5320,
        type: 3}
    - time: 9.083333
      value: {fileID: 4714777721637268124, guid: 125b2587682d5874095ea06d803e5320,
        type: 3}
    - time: 9.166667
      value: {fileID: 90775217950740512, guid: 125b2587682d5874095ea06d803e5320, type: 3}
    - time: 9.25
      value: {fileID: -7687084240442265734, guid: 125b2587682d5874095ea06d803e5320,
        type: 3}
    - time: 9.333333
      value: {fileID: 6141064974963931536, guid: 125b2587682d5874095ea06d803e5320,
        type: 3}
    - time: 9.416667
      value: {fileID: 770952060693398297, guid: 125b2587682d5874095ea06d803e5320,
        type: 3}
    - time: 9.5
      value: {fileID: -1026281341182094012, guid: 125b2587682d5874095ea06d803e5320,
        type: 3}
    - time: 9.583333
      value: {fileID: -3278841639621512368, guid: 125b2587682d5874095ea06d803e5320,
        type: 3}
    - time: 9.666667
      value: {fileID: 8643463489977455344, guid: 125b2587682d5874095ea06d803e5320,
        type: 3}
    - time: 9.75
      value: {fileID: 9196214848459672260, guid: 125b2587682d5874095ea06d803e5320,
        type: 3}
    - time: 9.833333
      value: {fileID: -4352560149964489481, guid: 125b2587682d5874095ea06d803e5320,
        type: 3}
    - time: 9.916667
      value: {fileID: -3452752845312164234, guid: 125b2587682d5874095ea06d803e5320,
        type: 3}
    - time: 10
      value: {fileID: 2027777970685382907, guid: 125b2587682d5874095ea06d803e5320,
        type: 3}
    - time: 10.083333
      value: {fileID: -2452639121254687603, guid: 125b2587682d5874095ea06d803e5320,
        type: 3}
    - time: 10.166667
      value: {fileID: 8885943036750064194, guid: 125b2587682d5874095ea06d803e5320,
        type: 3}
    - time: 10.25
      value: {fileID: 415061441690169874, guid: 125b2587682d5874095ea06d803e5320,
        type: 3}
    - time: 10.333333
      value: {fileID: -7159690300764137562, guid: 125b2587682d5874095ea06d803e5320,
        type: 3}
    - time: 10.416667
      value: {fileID: -387727784003518090, guid: 125b2587682d5874095ea06d803e5320,
        type: 3}
    - time: 10.5
      value: {fileID: 8558561689986416424, guid: 125b2587682d5874095ea06d803e5320,
        type: 3}
    - time: 10.583333
      value: {fileID: -3924161649210739497, guid: 125b2587682d5874095ea06d803e5320,
        type: 3}
    - time: 10.666667
      value: {fileID: -3596013730428901677, guid: 125b2587682d5874095ea06d803e5320,
        type: 3}
    - time: 10.75
      value: {fileID: 5377702056772021916, guid: 125b2587682d5874095ea06d803e5320,
        type: 3}
    - time: 10.833333
      value: {fileID: 381358830331105456, guid: 125b2587682d5874095ea06d803e5320,
        type: 3}
    - time: 10.916667
      value: {fileID: -7658149301456907184, guid: 125b2587682d5874095ea06d803e5320,
        type: 3}
    - time: 11
      value: {fileID: 5140808928588288480, guid: 125b2587682d5874095ea06d803e5320,
        type: 3}
    - time: 11.083333
      value: {fileID: 1732947563555733175, guid: 125b2587682d5874095ea06d803e5320,
        type: 3}
    - time: 11.166667
      value: {fileID: 1831497455282042976, guid: 125b2587682d5874095ea06d803e5320,
        type: 3}
    - time: 11.25
      value: {fileID: 3739011858608635681, guid: 125b2587682d5874095ea06d803e5320,
        type: 3}
    - time: 11.333333
      value: {fileID: 3881139934958965829, guid: 125b2587682d5874095ea06d803e5320,
        type: 3}
    - time: 11.416667
      value: {fileID: 9208244240091546464, guid: 125b2587682d5874095ea06d803e5320,
        type: 3}
    - time: 11.5
      value: {fileID: 7225001576889220756, guid: 125b2587682d5874095ea06d803e5320,
        type: 3}
    - time: 11.583333
      value: {fileID: -5249371838847806223, guid: 125b2587682d5874095ea06d803e5320,
        type: 3}
    - time: 11.666667
      value: {fileID: -8315035673500493146, guid: 125b2587682d5874095ea06d803e5320,
        type: 3}
    - time: 11.75
      value: {fileID: -2407036318476983571, guid: 125b2587682d5874095ea06d803e5320,
        type: 3}
    - time: 11.833333
      value: {fileID: -9055654502151962231, guid: 125b2587682d5874095ea06d803e5320,
        type: 3}
    - time: 11.916667
      value: {fileID: -7547208301564399080, guid: 125b2587682d5874095ea06d803e5320,
        type: 3}
    - time: 12
      value: {fileID: -2675217655771267602, guid: 125b2587682d5874095ea06d803e5320,
        type: 3}
    - time: 12.083333
      value: {fileID: 6742858786658377611, guid: 125b2587682d5874095ea06d803e5320,
        type: 3}
    - time: 12.166667
      value: {fileID: -8569586391876840381, guid: 125b2587682d5874095ea06d803e5320,
        type: 3}
    - time: 12.25
      value: {fileID: -8200795599149233575, guid: 125b2587682d5874095ea06d803e5320,
        type: 3}
    - time: 12.333333
      value: {fileID: 994121858268789095, guid: 125b2587682d5874095ea06d803e5320,
        type: 3}
    - time: 12.416667
      value: {fileID: 5592595641341536568, guid: 125b2587682d5874095ea06d803e5320,
        type: 3}
    - time: 12.5
      value: {fileID: 8029333345776166080, guid: 125b2587682d5874095ea06d803e5320,
        type: 3}
    - time: 12.583333
      value: {fileID: -2417610219246859543, guid: 125b2587682d5874095ea06d803e5320,
        type: 3}
    - time: 12.666667
      value: {fileID: 2036099654559234509, guid: 125b2587682d5874095ea06d803e5320,
        type: 3}
    - time: 12.75
      value: {fileID: -3120883418688036962, guid: 125b2587682d5874095ea06d803e5320,
        type: 3}
    - time: 12.833333
      value: {fileID: -6107237747956816649, guid: 125b2587682d5874095ea06d803e5320,
        type: 3}
    - time: 12.916667
      value: {fileID: -4471422709837227182, guid: 125b2587682d5874095ea06d803e5320,
        type: 3}
    - time: 13
      value: {fileID: -5003725740065767458, guid: 125b2587682d5874095ea06d803e5320,
        type: 3}
    - time: 13.083333
      value: {fileID: 988267607396247018, guid: 125b2587682d5874095ea06d803e5320,
        type: 3}
    - time: 13.166667
      value: {fileID: -1162511865909808313, guid: 125b2587682d5874095ea06d803e5320,
        type: 3}
    - time: 13.25
      value: {fileID: 1172666411192043736, guid: 125b2587682d5874095ea06d803e5320,
        type: 3}
    - time: 13.333333
      value: {fileID: 2618155022885338093, guid: 125b2587682d5874095ea06d803e5320,
        type: 3}
    - time: 13.416667
      value: {fileID: 2479836996301891380, guid: 125b2587682d5874095ea06d803e5320,
        type: 3}
    - time: 13.5
      value: {fileID: -6039484255240466391, guid: 125b2587682d5874095ea06d803e5320,
        type: 3}
    - time: 13.583333
      value: {fileID: 6132011608008762983, guid: 125b2587682d5874095ea06d803e5320,
        type: 3}
    - time: 13.666667
      value: {fileID: 230449359501495562, guid: 125b2587682d5874095ea06d803e5320,
        type: 3}
    - time: 13.75
      value: {fileID: -6153426095047376036, guid: 125b2587682d5874095ea06d803e5320,
        type: 3}
    - time: 13.833333
      value: {fileID: 3920996088595103184, guid: 125b2587682d5874095ea06d803e5320,
        type: 3}
    - time: 13.916667
      value: {fileID: -7034959374091901189, guid: 125b2587682d5874095ea06d803e5320,
        type: 3}
    - time: 14
      value: {fileID: 8335887072827920622, guid: 125b2587682d5874095ea06d803e5320,
        type: 3}
    - time: 14.083333
      value: {fileID: -4105857627953635094, guid: 125b2587682d5874095ea06d803e5320,
        type: 3}
    - time: 14.166667
      value: {fileID: -1904472063517347753, guid: 125b2587682d5874095ea06d803e5320,
        type: 3}
    - time: 14.25
      value: {fileID: 6887903274872025462, guid: 125b2587682d5874095ea06d803e5320,
        type: 3}
    - time: 14.333333
      value: {fileID: 8883175010635585393, guid: 125b2587682d5874095ea06d803e5320,
        type: 3}
    - time: 14.416667
      value: {fileID: -3610151041276387132, guid: 125b2587682d5874095ea06d803e5320,
        type: 3}
    - time: 14.5
      value: {fileID: 1002182342328111203, guid: 125b2587682d5874095ea06d803e5320,
        type: 3}
    - time: 14.583333
      value: {fileID: 1103492673329381676, guid: 125b2587682d5874095ea06d803e5320,
        type: 3}
    - time: 14.666667
      value: {fileID: -1071788312539735221, guid: 125b2587682d5874095ea06d803e5320,
        type: 3}
    - time: 14.75
      value: {fileID: -6499844223045252423, guid: 125b2587682d5874095ea06d803e5320,
        type: 3}
    - time: 14.833333
      value: {fileID: -6569287640552696859, guid: 125b2587682d5874095ea06d803e5320,
        type: 3}
    - time: 14.916667
      value: {fileID: 7733941280523421923, guid: 125b2587682d5874095ea06d803e5320,
        type: 3}
    attribute: m_Sprite
    path: 
    classID: 212
    script: {fileID: 0}
  m_SampleRate: 12
  m_WrapMode: 0
  m_Bounds:
    m_Center: {x: 0, y: 0, z: 0}
    m_Extent: {x: 0, y: 0, z: 0}
  m_ClipBindingConstant:
    genericBindings:
    - serializedVersion: 2
      path: 0
      attribute: 0
      script: {fileID: 0}
      typeID: 212
      customType: 23
      isPPtrCurve: 1
    pptrCurveMapping:
    - {fileID: 5515940388465253583, guid: 125b2587682d5874095ea06d803e5320, type: 3}
    - {fileID: -6520443128951653849, guid: 125b2587682d5874095ea06d803e5320, type: 3}
    - {fileID: -1438455721846447060, guid: 125b2587682d5874095ea06d803e5320, type: 3}
    - {fileID: -695508911225482883, guid: 125b2587682d5874095ea06d803e5320, type: 3}
    - {fileID: -4056761900464952230, guid: 125b2587682d5874095ea06d803e5320, type: 3}
    - {fileID: 7385018138126898444, guid: 125b2587682d5874095ea06d803e5320, type: 3}
    - {fileID: 6864951633810407737, guid: 125b2587682d5874095ea06d803e5320, type: 3}
    - {fileID: -7690719552909781631, guid: 125b2587682d5874095ea06d803e5320, type: 3}
    - {fileID: 1283128748658628804, guid: 125b2587682d5874095ea06d803e5320, type: 3}
    - {fileID: -8255346605438262791, guid: 125b2587682d5874095ea06d803e5320, type: 3}
    - {fileID: -4931404147288087084, guid: 125b2587682d5874095ea06d803e5320, type: 3}
    - {fileID: 6881875229547684426, guid: 125b2587682d5874095ea06d803e5320, type: 3}
    - {fileID: 4303769466727667012, guid: 125b2587682d5874095ea06d803e5320, type: 3}
    - {fileID: 4586777681906219758, guid: 125b2587682d5874095ea06d803e5320, type: 3}
    - {fileID: 5265022023639740371, guid: 125b2587682d5874095ea06d803e5320, type: 3}
    - {fileID: -620582921062787571, guid: 125b2587682d5874095ea06d803e5320, type: 3}
    - {fileID: 4488791372681652255, guid: 125b2587682d5874095ea06d803e5320, type: 3}
    - {fileID: 4039163050319630384, guid: 125b2587682d5874095ea06d803e5320, type: 3}
    - {fileID: -8652791768032594203, guid: 125b2587682d5874095ea06d803e5320, type: 3}
    - {fileID: -5240080820927950682, guid: 125b2587682d5874095ea06d803e5320, type: 3}
    - {fileID: -2179491946542612731, guid: 125b2587682d5874095ea06d803e5320, type: 3}
    - {fileID: -236438270778105026, guid: 125b2587682d5874095ea06d803e5320, type: 3}
    - {fileID: 6152064827210850160, guid: 125b2587682d5874095ea06d803e5320, type: 3}
    - {fileID: 4237073251075388097, guid: 125b2587682d5874095ea06d803e5320, type: 3}
    - {fileID: 2636805266812054137, guid: 125b2587682d5874095ea06d803e5320, type: 3}
    - {fileID: -268066435241211554, guid: 125b2587682d5874095ea06d803e5320, type: 3}
    - {fileID: 2685037774779261071, guid: 125b2587682d5874095ea06d803e5320, type: 3}
    - {fileID: 4032620940056966189, guid: 125b2587682d5874095ea06d803e5320, type: 3}
    - {fileID: -6484147580194844080, guid: 125b2587682d5874095ea06d803e5320, type: 3}
    - {fileID: 6541147359082852304, guid: 125b2587682d5874095ea06d803e5320, type: 3}
    - {fileID: -6373307215172268941, guid: 125b2587682d5874095ea06d803e5320, type: 3}
    - {fileID: -1701788793634830156, guid: 125b2587682d5874095ea06d803e5320, type: 3}
    - {fileID: 8319027057893409049, guid: 125b2587682d5874095ea06d803e5320, type: 3}
    - {fileID: -1170458830452421567, guid: 125b2587682d5874095ea06d803e5320, type: 3}
    - {fileID: 3895955271376886457, guid: 125b2587682d5874095ea06d803e5320, type: 3}
    - {fileID: -9196720871325908961, guid: 125b2587682d5874095ea06d803e5320, type: 3}
    - {fileID: -1425215753762861846, guid: 125b2587682d5874095ea06d803e5320, type: 3}
    - {fileID: 5459077065017553117, guid: 125b2587682d5874095ea06d803e5320, type: 3}
    - {fileID: 7549806640703422999, guid: 125b2587682d5874095ea06d803e5320, type: 3}
    - {fileID: -8445061378611585177, guid: 125b2587682d5874095ea06d803e5320, type: 3}
    - {fileID: 8958208266106117847, guid: 125b2587682d5874095ea06d803e5320, type: 3}
    - {fileID: -5112768044507859757, guid: 125b2587682d5874095ea06d803e5320, type: 3}
    - {fileID: 3605711734747071471, guid: 125b2587682d5874095ea06d803e5320, type: 3}
    - {fileID: 8698154531481226208, guid: 125b2587682d5874095ea06d803e5320, type: 3}
    - {fileID: 2144673950274840710, guid: 125b2587682d5874095ea06d803e5320, type: 3}
    - {fileID: -13760472581257477, guid: 125b2587682d5874095ea06d803e5320, type: 3}
    - {fileID: -8442063963845884555, guid: 125b2587682d5874095ea06d803e5320, type: 3}
    - {fileID: -7867595899002592966, guid: 125b2587682d5874095ea06d803e5320, type: 3}
    - {fileID: 1072107806484296483, guid: 125b2587682d5874095ea06d803e5320, type: 3}
    - {fileID: 1915372697886362788, guid: 125b2587682d5874095ea06d803e5320, type: 3}
    - {fileID: -9020580986569542892, guid: 125b2587682d5874095ea06d803e5320, type: 3}
    - {fileID: 9116953998044443806, guid: 125b2587682d5874095ea06d803e5320, type: 3}
    - {fileID: 4359257147807077388, guid: 125b2587682d5874095ea06d803e5320, type: 3}
    - {fileID: 184729304942728638, guid: 125b2587682d5874095ea06d803e5320, type: 3}
    - {fileID: 4373826324433016302, guid: 125b2587682d5874095ea06d803e5320, type: 3}
    - {fileID: -8819672703574865908, guid: 125b2587682d5874095ea06d803e5320, type: 3}
    - {fileID: -8168565774961892437, guid: 125b2587682d5874095ea06d803e5320, type: 3}
    - {fileID: 2186053679860620951, guid: 125b2587682d5874095ea06d803e5320, type: 3}
    - {fileID: -3405042808211897707, guid: 125b2587682d5874095ea06d803e5320, type: 3}
    - {fileID: -4811366926946975532, guid: 125b2587682d5874095ea06d803e5320, type: 3}
    - {fileID: 7686211576320387647, guid: 125b2587682d5874095ea06d803e5320, type: 3}
    - {fileID: -1276328038353840244, guid: 125b2587682d5874095ea06d803e5320, type: 3}
    - {fileID: -5285813379135230000, guid: 125b2587682d5874095ea06d803e5320, type: 3}
    - {fileID: 1147874205050663083, guid: 125b2587682d5874095ea06d803e5320, type: 3}
    - {fileID: 5371239484402011345, guid: 125b2587682d5874095ea06d803e5320, type: 3}
    - {fileID: 7515946791067925755, guid: 125b2587682d5874095ea06d803e5320, type: 3}
    - {fileID: -7546104426737331467, guid: 125b2587682d5874095ea06d803e5320, type: 3}
    - {fileID: -917831109794184216, guid: 125b2587682d5874095ea06d803e5320, type: 3}
    - {fileID: -7391295382628762684, guid: 125b2587682d5874095ea06d803e5320, type: 3}
    - {fileID: -1328369368734189238, guid: 125b2587682d5874095ea06d803e5320, type: 3}
    - {fileID: -7141747190029318085, guid: 125b2587682d5874095ea06d803e5320, type: 3}
    - {fileID: 923402355030909943, guid: 125b2587682d5874095ea06d803e5320, type: 3}
    - {fileID: 3197307398397158390, guid: 125b2587682d5874095ea06d803e5320, type: 3}
    - {fileID: -4631676813484617699, guid: 125b2587682d5874095ea06d803e5320, type: 3}
    - {fileID: -6164636217699038393, guid: 125b2587682d5874095ea06d803e5320, type: 3}
    - {fileID: -8996886770721593267, guid: 125b2587682d5874095ea06d803e5320, type: 3}
    - {fileID: -1697027096338838853, guid: 125b2587682d5874095ea06d803e5320, type: 3}
    - {fileID: -8016805240880823990, guid: 125b2587682d5874095ea06d803e5320, type: 3}
    - {fileID: 2367115026987686316, guid: 125b2587682d5874095ea06d803e5320, type: 3}
    - {fileID: -2275896042707864358, guid: 125b2587682d5874095ea06d803e5320, type: 3}
    - {fileID: 4182776718150276800, guid: 125b2587682d5874095ea06d803e5320, type: 3}
    - {fileID: 100273499307743153, guid: 125b2587682d5874095ea06d803e5320, type: 3}
    - {fileID: 7154372377962638682, guid: 125b2587682d5874095ea06d803e5320, type: 3}
    - {fileID: -6865359735629421163, guid: 125b2587682d5874095ea06d803e5320, type: 3}
    - {fileID: -7498118466458391029, guid: 125b2587682d5874095ea06d803e5320, type: 3}
    - {fileID: -8305423387442743403, guid: 125b2587682d5874095ea06d803e5320, type: 3}
    - {fileID: 5474105692082978498, guid: 125b2587682d5874095ea06d803e5320, type: 3}
    - {fileID: -4232455218496884369, guid: 125b2587682d5874095ea06d803e5320, type: 3}
    - {fileID: 6899788824684007653, guid: 125b2587682d5874095ea06d803e5320, type: 3}
    - {fileID: -4565782838741058267, guid: 125b2587682d5874095ea06d803e5320, type: 3}
    - {fileID: -890355261824072406, guid: 125b2587682d5874095ea06d803e5320, type: 3}
    - {fileID: 8332889939780552218, guid: 125b2587682d5874095ea06d803e5320, type: 3}
    - {fileID: 3685310508670205282, guid: 125b2587682d5874095ea06d803e5320, type: 3}
    - {fileID: 1401586379074443175, guid: 125b2587682d5874095ea06d803e5320, type: 3}
    - {fileID: 5384519306764486539, guid: 125b2587682d5874095ea06d803e5320, type: 3}
    - {fileID: -5608818138908396809, guid: 125b2587682d5874095ea06d803e5320, type: 3}
    - {fileID: 6242190802149298068, guid: 125b2587682d5874095ea06d803e5320, type: 3}
    - {fileID: -6251758908008491347, guid: 125b2587682d5874095ea06d803e5320, type: 3}
    - {fileID: -9171166094428272626, guid: 125b2587682d5874095ea06d803e5320, type: 3}
    - {fileID: -5637483608443177833, guid: 125b2587682d5874095ea06d803e5320, type: 3}
    - {fileID: -2509892518542894531, guid: 125b2587682d5874095ea06d803e5320, type: 3}
    - {fileID: -422418833479648354, guid: 125b2587682d5874095ea06d803e5320, type: 3}
    - {fileID: 2082075922959190502, guid: 125b2587682d5874095ea06d803e5320, type: 3}
    - {fileID: -5499561566708206023, guid: 125b2587682d5874095ea06d803e5320, type: 3}
    - {fileID: 5216964734438515594, guid: 125b2587682d5874095ea06d803e5320, type: 3}
    - {fileID: 9217766581982417774, guid: 125b2587682d5874095ea06d803e5320, type: 3}
    - {fileID: 222830311158755476, guid: 125b2587682d5874095ea06d803e5320, type: 3}
    - {fileID: -8341133803587428179, guid: 125b2587682d5874095ea06d803e5320, type: 3}
    - {fileID: 8286199660478436596, guid: 125b2587682d5874095ea06d803e5320, type: 3}
    - {fileID: 4714777721637268124, guid: 125b2587682d5874095ea06d803e5320, type: 3}
    - {fileID: 90775217950740512, guid: 125b2587682d5874095ea06d803e5320, type: 3}
    - {fileID: -7687084240442265734, guid: 125b2587682d5874095ea06d803e5320, type: 3}
    - {fileID: 6141064974963931536, guid: 125b2587682d5874095ea06d803e5320, type: 3}
    - {fileID: 770952060693398297, guid: 125b2587682d5874095ea06d803e5320, type: 3}
    - {fileID: -1026281341182094012, guid: 125b2587682d5874095ea06d803e5320, type: 3}
    - {fileID: -3278841639621512368, guid: 125b2587682d5874095ea06d803e5320, type: 3}
    - {fileID: 8643463489977455344, guid: 125b2587682d5874095ea06d803e5320, type: 3}
    - {fileID: 9196214848459672260, guid: 125b2587682d5874095ea06d803e5320, type: 3}
    - {fileID: -4352560149964489481, guid: 125b2587682d5874095ea06d803e5320, type: 3}
    - {fileID: -3452752845312164234, guid: 125b2587682d5874095ea06d803e5320, type: 3}
    - {fileID: 2027777970685382907, guid: 125b2587682d5874095ea06d803e5320, type: 3}
    - {fileID: -2452639121254687603, guid: 125b2587682d5874095ea06d803e5320, type: 3}
    - {fileID: 8885943036750064194, guid: 125b2587682d5874095ea06d803e5320, type: 3}
    - {fileID: 415061441690169874, guid: 125b2587682d5874095ea06d803e5320, type: 3}
    - {fileID: -7159690300764137562, guid: 125b2587682d5874095ea06d803e5320, type: 3}
    - {fileID: -387727784003518090, guid: 125b2587682d5874095ea06d803e5320, type: 3}
    - {fileID: 8558561689986416424, guid: 125b2587682d5874095ea06d803e5320, type: 3}
    - {fileID: -3924161649210739497, guid: 125b2587682d5874095ea06d803e5320, type: 3}
    - {fileID: -3596013730428901677, guid: 125b2587682d5874095ea06d803e5320, type: 3}
    - {fileID: 5377702056772021916, guid: 125b2587682d5874095ea06d803e5320, type: 3}
    - {fileID: 381358830331105456, guid: 125b2587682d5874095ea06d803e5320, type: 3}
    - {fileID: -7658149301456907184, guid: 125b2587682d5874095ea06d803e5320, type: 3}
    - {fileID: 5140808928588288480, guid: 125b2587682d5874095ea06d803e5320, type: 3}
    - {fileID: 1732947563555733175, guid: 125b2587682d5874095ea06d803e5320, type: 3}
    - {fileID: 1831497455282042976, guid: 125b2587682d5874095ea06d803e5320, type: 3}
    - {fileID: 3739011858608635681, guid: 125b2587682d5874095ea06d803e5320, type: 3}
    - {fileID: 3881139934958965829, guid: 125b2587682d5874095ea06d803e5320, type: 3}
    - {fileID: 9208244240091546464, guid: 125b2587682d5874095ea06d803e5320, type: 3}
    - {fileID: 7225001576889220756, guid: 125b2587682d5874095ea06d803e5320, type: 3}
    - {fileID: -5249371838847806223, guid: 125b2587682d5874095ea06d803e5320, type: 3}
    - {fileID: -8315035673500493146, guid: 125b2587682d5874095ea06d803e5320, type: 3}
    - {fileID: -2407036318476983571, guid: 125b2587682d5874095ea06d803e5320, type: 3}
    - {fileID: -9055654502151962231, guid: 125b2587682d5874095ea06d803e5320, type: 3}
    - {fileID: -7547208301564399080, guid: 125b2587682d5874095ea06d803e5320, type: 3}
    - {fileID: -2675217655771267602, guid: 125b2587682d5874095ea06d803e5320, type: 3}
    - {fileID: 6742858786658377611, guid: 125b2587682d5874095ea06d803e5320, type: 3}
    - {fileID: -8569586391876840381, guid: 125b2587682d5874095ea06d803e5320, type: 3}
    - {fileID: -8200795599149233575, guid: 125b2587682d5874095ea06d803e5320, type: 3}
    - {fileID: 994121858268789095, guid: 125b2587682d5874095ea06d803e5320, type: 3}
    - {fileID: 5592595641341536568, guid: 125b2587682d5874095ea06d803e5320, type: 3}
    - {fileID: 8029333345776166080, guid: 125b2587682d5874095ea06d803e5320, type: 3}
    - {fileID: -2417610219246859543, guid: 125b2587682d5874095ea06d803e5320, type: 3}
    - {fileID: 2036099654559234509, guid: 125b2587682d5874095ea06d803e5320, type: 3}
    - {fileID: -3120883418688036962, guid: 125b2587682d5874095ea06d803e5320, type: 3}
    - {fileID: -6107237747956816649, guid: 125b2587682d5874095ea06d803e5320, type: 3}
    - {fileID: -4471422709837227182, guid: 125b2587682d5874095ea06d803e5320, type: 3}
    - {fileID: -5003725740065767458, guid: 125b2587682d5874095ea06d803e5320, type: 3}
    - {fileID: 988267607396247018, guid: 125b2587682d5874095ea06d803e5320, type: 3}
    - {fileID: -1162511865909808313, guid: 125b2587682d5874095ea06d803e5320, type: 3}
    - {fileID: 1172666411192043736, guid: 125b2587682d5874095ea06d803e5320, type: 3}
    - {fileID: 2618155022885338093, guid: 125b2587682d5874095ea06d803e5320, type: 3}
    - {fileID: 2479836996301891380, guid: 125b2587682d5874095ea06d803e5320, type: 3}
    - {fileID: -6039484255240466391, guid: 125b2587682d5874095ea06d803e5320, type: 3}
    - {fileID: 6132011608008762983, guid: 125b2587682d5874095ea06d803e5320, type: 3}
    - {fileID: 230449359501495562, guid: 125b2587682d5874095ea06d803e5320, type: 3}
    - {fileID: -6153426095047376036, guid: 125b2587682d5874095ea06d803e5320, type: 3}
    - {fileID: 3920996088595103184, guid: 125b2587682d5874095ea06d803e5320, type: 3}
    - {fileID: -7034959374091901189, guid: 125b2587682d5874095ea06d803e5320, type: 3}
    - {fileID: 8335887072827920622, guid: 125b2587682d5874095ea06d803e5320, type: 3}
    - {fileID: -4105857627953635094, guid: 125b2587682d5874095ea06d803e5320, type: 3}
    - {fileID: -1904472063517347753, guid: 125b2587682d5874095ea06d803e5320, type: 3}
    - {fileID: 6887903274872025462, guid: 125b2587682d5874095ea06d803e5320, type: 3}
    - {fileID: 8883175010635585393, guid: 125b2587682d5874095ea06d803e5320, type: 3}
    - {fileID: -3610151041276387132, guid: 125b2587682d5874095ea06d803e5320, type: 3}
    - {fileID: 1002182342328111203, guid: 125b2587682d5874095ea06d803e5320, type: 3}
    - {fileID: 1103492673329381676, guid: 125b2587682d5874095ea06d803e5320, type: 3}
    - {fileID: -1071788312539735221, guid: 125b2587682d5874095ea06d803e5320, type: 3}
    - {fileID: -6499844223045252423, guid: 125b2587682d5874095ea06d803e5320, type: 3}
    - {fileID: -6569287640552696859, guid: 125b2587682d5874095ea06d803e5320, type: 3}
    - {fileID: 7733941280523421923, guid: 125b2587682d5874095ea06d803e5320, type: 3}
  m_AnimationClipSettings:
    serializedVersion: 2
    m_AdditiveReferencePoseClip: {fileID: 0}
    m_AdditiveReferencePoseTime: 0
    m_StartTime: 0
    m_StopTime: 15
    m_OrientationOffsetY: 0
    m_Level: 0
    m_CycleOffset: 0
    m_HasAdditiveReferencePose: 0
    m_LoopTime: 1
    m_LoopBlend: 0
    m_LoopBlendOrientation: 0
    m_LoopBlendPositionY: 0
    m_LoopBlendPositionXZ: 0
    m_KeepOriginalOrientation: 0
    m_KeepOriginalPositionY: 1
    m_KeepOriginalPositionXZ: 0
    m_HeightFromFeet: 0
    m_Mirror: 0
  m_EditorCurves: []
  m_EulerEditorCurves: []
  m_HasGenericRootTransform: 0
  m_HasMotionFloatCurves: 0
  m_Events: []
